code_exp;G1;G2;taille;couleur
1432;C28;C29;moyenne;blanche
1433;C28;D01;grande;pourpre
1434;D01;D03;grande;rouge
1435;D01;D32;grande;jaune
1436;B38;D01;moyenne;jaune
1437;C29;D01;moyenne;pourpre
1438;C29;D32;petite;pourpre
1439;C28;D32;grande;jaune
