plat;aime_bien
bouchees_reine;True
brocolis;False
choucroute;True
gnocchi;False
gratin chou_fleur;False
langue_boeuf;False
lasagnes;False
omelette;False
pates_carbonara;True
pizza_regina;True
potee_lorraine;True
quenelles;True
ratatouille;False
souffle_fromage;False
