plat;aime_bien
bouchees_reine;False
brocolis;True
choucroute;False
gnocchi;False
gratin chou_fleur;True
langue_boeuf;False
lasagnes;True
omelette;False
pates_carbonara;False
pizza_regina;False
potee_lorraine;False
quenelles;True
ratatouille;True
souffle_fromage;True
